Rep,Psi,PLC
1,-0.955,0.934689893
1,-1.893,0.16457155
1,-2.515,6.06922E-15
1,-3.011,1.682264188
1,-3.574,10.88474458
1,-3.807,21.33076832
1,-4.16,54.14622616
1,-4.425,77.49707781
1,-4.684,94.84315149
2,-1.893,1.318027102
2,-2.515,-5.67948E-15
2,-3.021,5.249092801
2,-3.574,8.765621843
2,-3.796,14.74482085
2,-4.036,47.24004511
2,-4.425,80.796161
2,-4.671,95.05317884
3,-0.955,-4.959E-15
3,-1.885,0.903156308
3,-2.632,3.344990321
3,-3.021,11.94922966
3,-3.574,14.2276391
3,-3.807,26.09284255
3,-4.049,48.77534726
3,-4.425,86.95792779
4,-1.885,-4.81097E-15
4,-2.506,1.358021076
4,-3.011,6.781754669
4,-3.574,14.32461714
4,-3.927,37.57777279
4,-4.285,85.10460623
4,-4.684,98.52940698
5,-1.885,2.267807786
5,-2.525,-6.73535E-15
5,-3.021,3.277135133
5,-3.574,7.91537877
5,-3.807,15.29854474
5,-4.036,44.87873843
